minimal.vcd
$date
	Thu Jan 21 11:17:11 2021
$end
$version
	Icarus Verilog
$end
$timescale
	1ps
$end
$scope module top $end
$var wire 1 ! VGND $end
$var wire 1 " VPWR $end
$var wire 2 # active [1:0] $end
$var wire 1 $ clk $end
$var wire 1 % rst $end
$var wire 1 & sig_in $end
$var wire 1 ' sig_out $end
$var wire 1 ( \min1.q $end
$var wire 1 ) \min0.q $end
$var wire 1 * clknet_1_1_0_clk $end
$var wire 1 + clknet_1_0_0_clk $end
$var wire 1 , clknet_0_clk $end
$var wire 1 - _04_ $end
$var wire 1 . _03_ $end
$var wire 1 / _02_ $end
$var wire 1 0 _01_ $end
$var wire 1 1 _00_ $end
$scope module FILLER_0_15 $end
$var wire 1 ! VGND $end
$var wire 1 ! VNB $end
$var wire 1 " VPB $end
$var wire 1 " VPWR $end
$scope module base $end
$var wire 1 ! VGND $end
$var wire 1 ! VNB $end
$var wire 1 " VPB $end
$var wire 1 " VPWR $end
$upscope $end
$upscope $end
$scope module FILLER_0_22 $end
$var wire 1 ! VGND $end
$var wire 1 ! VNB $end
$var wire 1 " VPB $end
$var wire 1 " VPWR $end
$scope module base $end
$var wire 1 ! VGND $end
$var wire 1 ! VNB $end
$var wire 1 " VPB $end
$var wire 1 " VPWR $end
$upscope $end
$upscope $end
$scope module FILLER_0_3 $end
$var wire 1 ! VGND $end
$var wire 1 ! VNB $end
$var wire 1 " VPB $end
$var wire 1 " VPWR $end
$scope module base $end
$var wire 1 ! VGND $end
$var wire 1 ! VNB $end
$var wire 1 " VPB $end
$var wire 1 " VPWR $end
$upscope $end
$upscope $end
$scope module FILLER_0_30 $end
$var wire 1 ! VGND $end
$var wire 1 ! VNB $end
$var wire 1 " VPB $end
$var wire 1 " VPWR $end
$scope module base $end
$var wire 1 ! VGND $end
$var wire 1 ! VNB $end
$var wire 1 " VPB $end
$var wire 1 " VPWR $end
$upscope $end
$upscope $end
$scope module FILLER_0_32 $end
$var wire 1 ! VGND $end
$var wire 1 ! VNB $end
$var wire 1 " VPB $end
$var wire 1 " VPWR $end
$scope module base $end
$var wire 1 ! VGND $end
$var wire 1 ! VNB $end
$var wire 1 " VPB $end
$var wire 1 " VPWR $end
$upscope $end
$upscope $end
$scope module FILLER_0_44 $end
$var wire 1 ! VGND $end
$var wire 1 ! VNB $end
$var wire 1 " VPB $end
$var wire 1 " VPWR $end
$scope module base $end
$var wire 1 ! VGND $end
$var wire 1 ! VNB $end
$var wire 1 " VPB $end
$var wire 1 " VPWR $end
$upscope $end
$upscope $end
$scope module FILLER_0_52 $end
$var wire 1 ! VGND $end
$var wire 1 ! VNB $end
$var wire 1 " VPB $end
$var wire 1 " VPWR $end
$scope module base $end
$var wire 1 ! VGND $end
$var wire 1 ! VNB $end
$var wire 1 " VPB $end
$var wire 1 " VPWR $end
$upscope $end
$upscope $end
$scope module FILLER_1_15 $end
$var wire 1 ! VGND $end
$var wire 1 ! VNB $end
$var wire 1 " VPB $end
$var wire 1 " VPWR $end
$scope module base $end
$var wire 1 ! VGND $end
$var wire 1 ! VNB $end
$var wire 1 " VPB $end
$var wire 1 " VPWR $end
$upscope $end
$upscope $end
$scope module FILLER_1_21 $end
$var wire 1 ! VGND $end
$var wire 1 ! VNB $end
$var wire 1 " VPB $end
$var wire 1 " VPWR $end
$scope module base $end
$var wire 1 ! VGND $end
$var wire 1 ! VNB $end
$var wire 1 " VPB $end
$var wire 1 " VPWR $end
$upscope $end
$upscope $end
$scope module FILLER_1_3 $end
$var wire 1 ! VGND $end
$var wire 1 ! VNB $end
$var wire 1 " VPB $end
$var wire 1 " VPWR $end
$scope module base $end
$var wire 1 ! VGND $end
$var wire 1 ! VNB $end
$var wire 1 " VPB $end
$var wire 1 " VPWR $end
$upscope $end
$upscope $end
$scope module FILLER_1_33 $end
$var wire 1 ! VGND $end
$var wire 1 ! VNB $end
$var wire 1 " VPB $end
$var wire 1 " VPWR $end
$scope module base $end
$var wire 1 ! VGND $end
$var wire 1 ! VNB $end
$var wire 1 " VPB $end
$var wire 1 " VPWR $end
$upscope $end
$upscope $end
$scope module FILLER_1_45 $end
$var wire 1 ! VGND $end
$var wire 1 ! VNB $end
$var wire 1 " VPB $end
$var wire 1 " VPWR $end
$scope module base $end
$var wire 1 ! VGND $end
$var wire 1 ! VNB $end
$var wire 1 " VPB $end
$var wire 1 " VPWR $end
$upscope $end
$upscope $end
$scope module FILLER_2_15 $end
$var wire 1 ! VGND $end
$var wire 1 ! VNB $end
$var wire 1 " VPB $end
$var wire 1 " VPWR $end
$scope module base $end
$var wire 1 ! VGND $end
$var wire 1 ! VNB $end
$var wire 1 " VPB $end
$var wire 1 " VPWR $end
$upscope $end
$upscope $end
$scope module FILLER_2_23 $end
$var wire 1 ! VGND $end
$var wire 1 ! VNB $end
$var wire 1 " VPB $end
$var wire 1 " VPWR $end
$scope module base $end
$var wire 1 ! VGND $end
$var wire 1 ! VNB $end
$var wire 1 " VPB $end
$var wire 1 " VPWR $end
$upscope $end
$upscope $end
$scope module FILLER_2_3 $end
$var wire 1 ! VGND $end
$var wire 1 ! VNB $end
$var wire 1 " VPB $end
$var wire 1 " VPWR $end
$scope module base $end
$var wire 1 ! VGND $end
$var wire 1 ! VNB $end
$var wire 1 " VPB $end
$var wire 1 " VPWR $end
$upscope $end
$upscope $end
$scope module FILLER_2_32 $end
$var wire 1 ! VGND $end
$var wire 1 ! VNB $end
$var wire 1 " VPB $end
$var wire 1 " VPWR $end
$scope module base $end
$var wire 1 ! VGND $end
$var wire 1 ! VNB $end
$var wire 1 " VPB $end
$var wire 1 " VPWR $end
$upscope $end
$upscope $end
$scope module FILLER_2_37 $end
$var wire 1 ! VGND $end
$var wire 1 ! VNB $end
$var wire 1 " VPB $end
$var wire 1 " VPWR $end
$scope module base $end
$var wire 1 ! VGND $end
$var wire 1 ! VNB $end
$var wire 1 " VPB $end
$var wire 1 " VPWR $end
$upscope $end
$upscope $end
$scope module FILLER_2_49 $end
$var wire 1 ! VGND $end
$var wire 1 ! VNB $end
$var wire 1 " VPB $end
$var wire 1 " VPWR $end
$scope module base $end
$var wire 1 ! VGND $end
$var wire 1 ! VNB $end
$var wire 1 " VPB $end
$var wire 1 " VPWR $end
$upscope $end
$upscope $end
$scope module FILLER_3_15 $end
$var wire 1 ! VGND $end
$var wire 1 ! VNB $end
$var wire 1 " VPB $end
$var wire 1 " VPWR $end
$scope module base $end
$var wire 1 ! VGND $end
$var wire 1 ! VNB $end
$var wire 1 " VPB $end
$var wire 1 " VPWR $end
$upscope $end
$upscope $end
$scope module FILLER_3_3 $end
$var wire 1 ! VGND $end
$var wire 1 ! VNB $end
$var wire 1 " VPB $end
$var wire 1 " VPWR $end
$scope module base $end
$var wire 1 ! VGND $end
$var wire 1 ! VNB $end
$var wire 1 " VPB $end
$var wire 1 " VPWR $end
$upscope $end
$upscope $end
$scope module FILLER_3_38 $end
$var wire 1 ! VGND $end
$var wire 1 ! VNB $end
$var wire 1 " VPB $end
$var wire 1 " VPWR $end
$scope module base $end
$var wire 1 ! VGND $end
$var wire 1 ! VNB $end
$var wire 1 " VPB $end
$var wire 1 " VPWR $end
$upscope $end
$upscope $end
$scope module FILLER_3_50 $end
$var wire 1 ! VGND $end
$var wire 1 ! VNB $end
$var wire 1 " VPB $end
$var wire 1 " VPWR $end
$scope module base $end
$var wire 1 ! VGND $end
$var wire 1 ! VNB $end
$var wire 1 " VPB $end
$var wire 1 " VPWR $end
$upscope $end
$upscope $end
$scope module FILLER_4_11 $end
$var wire 1 ! VGND $end
$var wire 1 ! VNB $end
$var wire 1 " VPB $end
$var wire 1 " VPWR $end
$scope module base $end
$var wire 1 ! VGND $end
$var wire 1 ! VNB $end
$var wire 1 " VPB $end
$var wire 1 " VPWR $end
$upscope $end
$upscope $end
$scope module FILLER_4_23 $end
$var wire 1 ! VGND $end
$var wire 1 ! VNB $end
$var wire 1 " VPB $end
$var wire 1 " VPWR $end
$scope module base $end
$var wire 1 ! VGND $end
$var wire 1 ! VNB $end
$var wire 1 " VPB $end
$var wire 1 " VPWR $end
$upscope $end
$upscope $end
$scope module FILLER_4_3 $end
$var wire 1 ! VGND $end
$var wire 1 ! VNB $end
$var wire 1 " VPB $end
$var wire 1 " VPWR $end
$scope module base $end
$var wire 1 ! VGND $end
$var wire 1 ! VNB $end
$var wire 1 " VPB $end
$var wire 1 " VPWR $end
$upscope $end
$upscope $end
$scope module FILLER_4_41 $end
$var wire 1 ! VGND $end
$var wire 1 ! VNB $end
$var wire 1 " VPB $end
$var wire 1 " VPWR $end
$scope module base $end
$var wire 1 ! VGND $end
$var wire 1 ! VNB $end
$var wire 1 " VPB $end
$var wire 1 " VPWR $end
$upscope $end
$upscope $end
$scope module FILLER_5_15 $end
$var wire 1 ! VGND $end
$var wire 1 ! VNB $end
$var wire 1 " VPB $end
$var wire 1 " VPWR $end
$scope module base $end
$var wire 1 ! VGND $end
$var wire 1 ! VNB $end
$var wire 1 " VPB $end
$var wire 1 " VPWR $end
$upscope $end
$upscope $end
$scope module FILLER_5_3 $end
$var wire 1 ! VGND $end
$var wire 1 ! VNB $end
$var wire 1 " VPB $end
$var wire 1 " VPWR $end
$scope module base $end
$var wire 1 ! VGND $end
$var wire 1 ! VNB $end
$var wire 1 " VPB $end
$var wire 1 " VPWR $end
$upscope $end
$upscope $end
$scope module FILLER_5_39 $end
$var wire 1 ! VGND $end
$var wire 1 ! VNB $end
$var wire 1 " VPB $end
$var wire 1 " VPWR $end
$scope module base $end
$var wire 1 ! VGND $end
$var wire 1 ! VNB $end
$var wire 1 " VPB $end
$var wire 1 " VPWR $end
$upscope $end
$upscope $end
$scope module FILLER_5_51 $end
$var wire 1 ! VGND $end
$var wire 1 ! VNB $end
$var wire 1 " VPB $end
$var wire 1 " VPWR $end
$scope module base $end
$var wire 1 ! VGND $end
$var wire 1 ! VNB $end
$var wire 1 " VPB $end
$var wire 1 " VPWR $end
$upscope $end
$upscope $end
$scope module FILLER_6_15 $end
$var wire 1 ! VGND $end
$var wire 1 ! VNB $end
$var wire 1 " VPB $end
$var wire 1 " VPWR $end
$scope module base $end
$var wire 1 ! VGND $end
$var wire 1 ! VNB $end
$var wire 1 " VPB $end
$var wire 1 " VPWR $end
$upscope $end
$upscope $end
$scope module FILLER_6_19 $end
$var wire 1 ! VGND $end
$var wire 1 ! VNB $end
$var wire 1 " VPB $end
$var wire 1 " VPWR $end
$scope module base $end
$var wire 1 ! VGND $end
$var wire 1 ! VNB $end
$var wire 1 " VPB $end
$var wire 1 " VPWR $end
$upscope $end
$upscope $end
$scope module FILLER_6_23 $end
$var wire 1 ! VGND $end
$var wire 1 ! VNB $end
$var wire 1 " VPB $end
$var wire 1 " VPWR $end
$scope module base $end
$var wire 1 ! VGND $end
$var wire 1 ! VNB $end
$var wire 1 " VPB $end
$var wire 1 " VPWR $end
$upscope $end
$upscope $end
$scope module FILLER_6_3 $end
$var wire 1 ! VGND $end
$var wire 1 ! VNB $end
$var wire 1 " VPB $end
$var wire 1 " VPWR $end
$scope module base $end
$var wire 1 ! VGND $end
$var wire 1 ! VNB $end
$var wire 1 " VPB $end
$var wire 1 " VPWR $end
$upscope $end
$upscope $end
$scope module FILLER_6_41 $end
$var wire 1 ! VGND $end
$var wire 1 ! VNB $end
$var wire 1 " VPB $end
$var wire 1 " VPWR $end
$scope module base $end
$var wire 1 ! VGND $end
$var wire 1 ! VNB $end
$var wire 1 " VPB $end
$var wire 1 " VPWR $end
$upscope $end
$upscope $end
$scope module FILLER_7_15 $end
$var wire 1 ! VGND $end
$var wire 1 ! VNB $end
$var wire 1 " VPB $end
$var wire 1 " VPWR $end
$scope module base $end
$var wire 1 ! VGND $end
$var wire 1 ! VNB $end
$var wire 1 " VPB $end
$var wire 1 " VPWR $end
$upscope $end
$upscope $end
$scope module FILLER_7_3 $end
$var wire 1 ! VGND $end
$var wire 1 ! VNB $end
$var wire 1 " VPB $end
$var wire 1 " VPWR $end
$scope module base $end
$var wire 1 ! VGND $end
$var wire 1 ! VNB $end
$var wire 1 " VPB $end
$var wire 1 " VPWR $end
$upscope $end
$upscope $end
$scope module FILLER_7_38 $end
$var wire 1 ! VGND $end
$var wire 1 ! VNB $end
$var wire 1 " VPB $end
$var wire 1 " VPWR $end
$scope module base $end
$var wire 1 ! VGND $end
$var wire 1 ! VNB $end
$var wire 1 " VPB $end
$var wire 1 " VPWR $end
$upscope $end
$upscope $end
$scope module FILLER_7_50 $end
$var wire 1 ! VGND $end
$var wire 1 ! VNB $end
$var wire 1 " VPB $end
$var wire 1 " VPWR $end
$scope module base $end
$var wire 1 ! VGND $end
$var wire 1 ! VNB $end
$var wire 1 " VPB $end
$var wire 1 " VPWR $end
$upscope $end
$upscope $end
$scope module FILLER_8_15 $end
$var wire 1 ! VGND $end
$var wire 1 ! VNB $end
$var wire 1 " VPB $end
$var wire 1 " VPWR $end
$scope module base $end
$var wire 1 ! VGND $end
$var wire 1 ! VNB $end
$var wire 1 " VPB $end
$var wire 1 " VPWR $end
$upscope $end
$upscope $end
$scope module FILLER_8_22 $end
$var wire 1 ! VGND $end
$var wire 1 ! VNB $end
$var wire 1 " VPB $end
$var wire 1 " VPWR $end
$scope module base $end
$var wire 1 ! VGND $end
$var wire 1 ! VNB $end
$var wire 1 " VPB $end
$var wire 1 " VPWR $end
$upscope $end
$upscope $end
$scope module FILLER_8_3 $end
$var wire 1 ! VGND $end
$var wire 1 ! VNB $end
$var wire 1 " VPB $end
$var wire 1 " VPWR $end
$scope module base $end
$var wire 1 ! VGND $end
$var wire 1 ! VNB $end
$var wire 1 " VPB $end
$var wire 1 " VPWR $end
$upscope $end
$upscope $end
$scope module FILLER_8_30 $end
$var wire 1 ! VGND $end
$var wire 1 ! VNB $end
$var wire 1 " VPB $end
$var wire 1 " VPWR $end
$scope module base $end
$var wire 1 ! VGND $end
$var wire 1 ! VNB $end
$var wire 1 " VPB $end
$var wire 1 " VPWR $end
$upscope $end
$upscope $end
$scope module FILLER_8_32 $end
$var wire 1 ! VGND $end
$var wire 1 ! VNB $end
$var wire 1 " VPB $end
$var wire 1 " VPWR $end
$scope module base $end
$var wire 1 ! VGND $end
$var wire 1 ! VNB $end
$var wire 1 " VPB $end
$var wire 1 " VPWR $end
$upscope $end
$upscope $end
$scope module FILLER_8_44 $end
$var wire 1 ! VGND $end
$var wire 1 ! VNB $end
$var wire 1 " VPB $end
$var wire 1 " VPWR $end
$scope module base $end
$var wire 1 ! VGND $end
$var wire 1 ! VNB $end
$var wire 1 " VPB $end
$var wire 1 " VPWR $end
$upscope $end
$upscope $end
$scope module FILLER_8_52 $end
$var wire 1 ! VGND $end
$var wire 1 ! VNB $end
$var wire 1 " VPB $end
$var wire 1 " VPWR $end
$scope module base $end
$var wire 1 ! VGND $end
$var wire 1 ! VNB $end
$var wire 1 " VPB $end
$var wire 1 " VPWR $end
$upscope $end
$upscope $end
$scope module PHY_0 $end
$var wire 1 ! VGND $end
$var wire 1 ! VNB $end
$var wire 1 " VPB $end
$var wire 1 " VPWR $end
$scope module base $end
$var wire 1 ! VGND $end
$var wire 1 ! VNB $end
$var wire 1 " VPB $end
$var wire 1 " VPWR $end
$upscope $end
$upscope $end
$scope module PHY_1 $end
$var wire 1 ! VGND $end
$var wire 1 ! VNB $end
$var wire 1 " VPB $end
$var wire 1 " VPWR $end
$scope module base $end
$var wire 1 ! VGND $end
$var wire 1 ! VNB $end
$var wire 1 " VPB $end
$var wire 1 " VPWR $end
$upscope $end
$upscope $end
$scope module PHY_10 $end
$var wire 1 ! VGND $end
$var wire 1 ! VNB $end
$var wire 1 " VPB $end
$var wire 1 " VPWR $end
$scope module base $end
$var wire 1 ! VGND $end
$var wire 1 ! VNB $end
$var wire 1 " VPB $end
$var wire 1 " VPWR $end
$upscope $end
$upscope $end
$scope module PHY_11 $end
$var wire 1 ! VGND $end
$var wire 1 ! VNB $end
$var wire 1 " VPB $end
$var wire 1 " VPWR $end
$scope module base $end
$var wire 1 ! VGND $end
$var wire 1 ! VNB $end
$var wire 1 " VPB $end
$var wire 1 " VPWR $end
$upscope $end
$upscope $end
$scope module PHY_12 $end
$var wire 1 ! VGND $end
$var wire 1 ! VNB $end
$var wire 1 " VPB $end
$var wire 1 " VPWR $end
$scope module base $end
$var wire 1 ! VGND $end
$var wire 1 ! VNB $end
$var wire 1 " VPB $end
$var wire 1 " VPWR $end
$upscope $end
$upscope $end
$scope module PHY_13 $end
$var wire 1 ! VGND $end
$var wire 1 ! VNB $end
$var wire 1 " VPB $end
$var wire 1 " VPWR $end
$scope module base $end
$var wire 1 ! VGND $end
$var wire 1 ! VNB $end
$var wire 1 " VPB $end
$var wire 1 " VPWR $end
$upscope $end
$upscope $end
$scope module PHY_14 $end
$var wire 1 ! VGND $end
$var wire 1 ! VNB $end
$var wire 1 " VPB $end
$var wire 1 " VPWR $end
$scope module base $end
$var wire 1 ! VGND $end
$var wire 1 ! VNB $end
$var wire 1 " VPB $end
$var wire 1 " VPWR $end
$upscope $end
$upscope $end
$scope module PHY_15 $end
$var wire 1 ! VGND $end
$var wire 1 ! VNB $end
$var wire 1 " VPB $end
$var wire 1 " VPWR $end
$scope module base $end
$var wire 1 ! VGND $end
$var wire 1 ! VNB $end
$var wire 1 " VPB $end
$var wire 1 " VPWR $end
$upscope $end
$upscope $end
$scope module PHY_16 $end
$var wire 1 ! VGND $end
$var wire 1 ! VNB $end
$var wire 1 " VPB $end
$var wire 1 " VPWR $end
$scope module base $end
$var wire 1 ! VGND $end
$var wire 1 ! VNB $end
$var wire 1 " VPB $end
$var wire 1 " VPWR $end
$upscope $end
$upscope $end
$scope module PHY_17 $end
$var wire 1 ! VGND $end
$var wire 1 ! VNB $end
$var wire 1 " VPB $end
$var wire 1 " VPWR $end
$scope module base $end
$var wire 1 ! VGND $end
$var wire 1 ! VNB $end
$var wire 1 " VPB $end
$var wire 1 " VPWR $end
$upscope $end
$upscope $end
$scope module PHY_18 $end
$var wire 1 ! VGND $end
$var wire 1 2 VNB $end
$var wire 1 3 VPB $end
$var wire 1 " VPWR $end
$scope module base $end
$var wire 1 ! VGND $end
$var wire 1 2 VNB $end
$var wire 1 3 VPB $end
$var wire 1 " VPWR $end
$upscope $end
$upscope $end
$scope module PHY_19 $end
$var wire 1 ! VGND $end
$var wire 1 4 VNB $end
$var wire 1 5 VPB $end
$var wire 1 " VPWR $end
$scope module base $end
$var wire 1 ! VGND $end
$var wire 1 4 VNB $end
$var wire 1 5 VPB $end
$var wire 1 " VPWR $end
$upscope $end
$upscope $end
$scope module PHY_2 $end
$var wire 1 ! VGND $end
$var wire 1 ! VNB $end
$var wire 1 " VPB $end
$var wire 1 " VPWR $end
$scope module base $end
$var wire 1 ! VGND $end
$var wire 1 ! VNB $end
$var wire 1 " VPB $end
$var wire 1 " VPWR $end
$upscope $end
$upscope $end
$scope module PHY_20 $end
$var wire 1 ! VGND $end
$var wire 1 6 VNB $end
$var wire 1 7 VPB $end
$var wire 1 " VPWR $end
$scope module base $end
$var wire 1 ! VGND $end
$var wire 1 6 VNB $end
$var wire 1 7 VPB $end
$var wire 1 " VPWR $end
$upscope $end
$upscope $end
$scope module PHY_21 $end
$var wire 1 ! VGND $end
$var wire 1 8 VNB $end
$var wire 1 9 VPB $end
$var wire 1 " VPWR $end
$scope module base $end
$var wire 1 ! VGND $end
$var wire 1 8 VNB $end
$var wire 1 9 VPB $end
$var wire 1 " VPWR $end
$upscope $end
$upscope $end
$scope module PHY_22 $end
$var wire 1 ! VGND $end
$var wire 1 : VNB $end
$var wire 1 ; VPB $end
$var wire 1 " VPWR $end
$scope module base $end
$var wire 1 ! VGND $end
$var wire 1 : VNB $end
$var wire 1 ; VPB $end
$var wire 1 " VPWR $end
$upscope $end
$upscope $end
$scope module PHY_3 $end
$var wire 1 ! VGND $end
$var wire 1 ! VNB $end
$var wire 1 " VPB $end
$var wire 1 " VPWR $end
$scope module base $end
$var wire 1 ! VGND $end
$var wire 1 ! VNB $end
$var wire 1 " VPB $end
$var wire 1 " VPWR $end
$upscope $end
$upscope $end
$scope module PHY_4 $end
$var wire 1 ! VGND $end
$var wire 1 ! VNB $end
$var wire 1 " VPB $end
$var wire 1 " VPWR $end
$scope module base $end
$var wire 1 ! VGND $end
$var wire 1 ! VNB $end
$var wire 1 " VPB $end
$var wire 1 " VPWR $end
$upscope $end
$upscope $end
$scope module PHY_5 $end
$var wire 1 ! VGND $end
$var wire 1 ! VNB $end
$var wire 1 " VPB $end
$var wire 1 " VPWR $end
$scope module base $end
$var wire 1 ! VGND $end
$var wire 1 ! VNB $end
$var wire 1 " VPB $end
$var wire 1 " VPWR $end
$upscope $end
$upscope $end
$scope module PHY_6 $end
$var wire 1 ! VGND $end
$var wire 1 ! VNB $end
$var wire 1 " VPB $end
$var wire 1 " VPWR $end
$scope module base $end
$var wire 1 ! VGND $end
$var wire 1 ! VNB $end
$var wire 1 " VPB $end
$var wire 1 " VPWR $end
$upscope $end
$upscope $end
$scope module PHY_7 $end
$var wire 1 ! VGND $end
$var wire 1 ! VNB $end
$var wire 1 " VPB $end
$var wire 1 " VPWR $end
$scope module base $end
$var wire 1 ! VGND $end
$var wire 1 ! VNB $end
$var wire 1 " VPB $end
$var wire 1 " VPWR $end
$upscope $end
$upscope $end
$scope module PHY_8 $end
$var wire 1 ! VGND $end
$var wire 1 ! VNB $end
$var wire 1 " VPB $end
$var wire 1 " VPWR $end
$scope module base $end
$var wire 1 ! VGND $end
$var wire 1 ! VNB $end
$var wire 1 " VPB $end
$var wire 1 " VPWR $end
$upscope $end
$upscope $end
$scope module PHY_9 $end
$var wire 1 ! VGND $end
$var wire 1 ! VNB $end
$var wire 1 " VPB $end
$var wire 1 " VPWR $end
$scope module base $end
$var wire 1 ! VGND $end
$var wire 1 ! VNB $end
$var wire 1 " VPB $end
$var wire 1 " VPWR $end
$upscope $end
$upscope $end
$scope module _05_ $end
$var wire 1 % A $end
$var wire 1 & B $end
$var wire 1 ! VGND $end
$var wire 1 ! VNB $end
$var wire 1 " VPB $end
$var wire 1 " VPWR $end
$var wire 1 1 Y $end
$scope module base $end
$var wire 1 % A $end
$var wire 1 & B $end
$var wire 1 ! VGND $end
$var wire 1 ! VNB $end
$var wire 1 " VPB $end
$var wire 1 " VPWR $end
$var wire 1 1 Y $end
$var wire 1 < nor0_out_Y $end
$var wire 1 = pwrgood_pp0_out_Y $end
$upscope $end
$upscope $end
$scope module _06_ $end
$var wire 1 > A $end
$var wire 1 ! VGND $end
$var wire 1 ! VNB $end
$var wire 1 " VPB $end
$var wire 1 " VPWR $end
$var wire 1 - Y $end
$scope module base $end
$var wire 1 > A $end
$var wire 1 ! VGND $end
$var wire 1 ! VNB $end
$var wire 1 " VPB $end
$var wire 1 " VPWR $end
$var wire 1 - Y $end
$var wire 1 ? not0_out_Y $end
$var wire 1 @ pwrgood_pp0_out_Y $end
$upscope $end
$upscope $end
$scope module _07_ $end
$var wire 1 A A $end
$var wire 1 ! VGND $end
$var wire 1 ! VNB $end
$var wire 1 " VPB $end
$var wire 1 " VPWR $end
$var wire 1 . Y $end
$scope module base $end
$var wire 1 A A $end
$var wire 1 ! VGND $end
$var wire 1 ! VNB $end
$var wire 1 " VPB $end
$var wire 1 " VPWR $end
$var wire 1 . Y $end
$var wire 1 B not0_out_Y $end
$var wire 1 C pwrgood_pp0_out_Y $end
$upscope $end
$upscope $end
$scope module _08_ $end
$var wire 1 % A $end
$var wire 1 ! VGND $end
$var wire 1 ! VNB $end
$var wire 1 " VPB $end
$var wire 1 " VPWR $end
$var wire 1 / Y $end
$scope module base $end
$var wire 1 % A $end
$var wire 1 ! VGND $end
$var wire 1 ! VNB $end
$var wire 1 " VPB $end
$var wire 1 " VPWR $end
$var wire 1 / Y $end
$var wire 1 D not0_out_Y $end
$var wire 1 E pwrgood_pp0_out_Y $end
$upscope $end
$upscope $end
$scope module _09_ $end
$var wire 1 / A $end
$var wire 1 & B $end
$var wire 1 ! VGND $end
$var wire 1 ! VNB $end
$var wire 1 " VPB $end
$var wire 1 " VPWR $end
$var wire 1 0 X $end
$scope module base $end
$var wire 1 / A $end
$var wire 1 & B $end
$var wire 1 ! VGND $end
$var wire 1 ! VNB $end
$var wire 1 " VPB $end
$var wire 1 " VPWR $end
$var wire 1 0 X $end
$var wire 1 F and0_out_X $end
$var wire 1 G pwrgood_pp0_out_X $end
$upscope $end
$upscope $end
$scope module _10_ $end
$var wire 1 . TE_B $end
$var wire 1 ! VGND $end
$var wire 1 ! VNB $end
$var wire 1 " VPB $end
$var wire 1 " VPWR $end
$var wire 1 ' Z $end
$var wire 1 ) A $end
$scope module base $end
$var wire 1 . TE_B $end
$var wire 1 ! VGND $end
$var wire 1 ! VNB $end
$var wire 1 " VPB $end
$var wire 1 " VPWR $end
$var wire 1 ' Z $end
$var wire 1 H pwrgood_pp0_out_A $end
$var wire 1 I pwrgood_pp1_out_teb $end
$var wire 1 ) A $end
$upscope $end
$upscope $end
$scope module _11_ $end
$var wire 1 - TE_B $end
$var wire 1 ! VGND $end
$var wire 1 ! VNB $end
$var wire 1 " VPB $end
$var wire 1 " VPWR $end
$var wire 1 ' Z $end
$var wire 1 ( A $end
$scope module base $end
$var wire 1 - TE_B $end
$var wire 1 ! VGND $end
$var wire 1 ! VNB $end
$var wire 1 " VPB $end
$var wire 1 " VPWR $end
$var wire 1 ' Z $end
$var wire 1 J pwrgood_pp0_out_A $end
$var wire 1 K pwrgood_pp1_out_teb $end
$var wire 1 ( A $end
$upscope $end
$upscope $end
$scope module _12_ $end
$var wire 1 1 D $end
$var wire 1 ! VGND $end
$var wire 1 ! VNB $end
$var wire 1 " VPB $end
$var wire 1 " VPWR $end
$var wire 1 ( Q $end
$var wire 1 + CLK $end
$scope module base $end
$var wire 1 1 D $end
$var wire 1 ( Q $end
$var wire 1 ! VGND $end
$var wire 1 ! VNB $end
$var wire 1 " VPB $end
$var wire 1 " VPWR $end
$var wire 1 L buf_Q $end
$var wire 1 + CLK $end
$upscope $end
$upscope $end
$scope module _13_ $end
$var wire 1 0 D $end
$var wire 1 ! VGND $end
$var wire 1 ! VNB $end
$var wire 1 " VPB $end
$var wire 1 " VPWR $end
$var wire 1 ) Q $end
$var wire 1 * CLK $end
$scope module base $end
$var wire 1 0 D $end
$var wire 1 ) Q $end
$var wire 1 ! VGND $end
$var wire 1 ! VNB $end
$var wire 1 " VPB $end
$var wire 1 " VPWR $end
$var wire 1 M buf_Q $end
$var wire 1 * CLK $end
$upscope $end
$upscope $end
$scope module clkbuf_0_clk $end
$var wire 1 $ A $end
$var wire 1 ! VGND $end
$var wire 1 ! VNB $end
$var wire 1 " VPB $end
$var wire 1 " VPWR $end
$var wire 1 , X $end
$scope module base $end
$var wire 1 $ A $end
$var wire 1 ! VGND $end
$var wire 1 ! VNB $end
$var wire 1 " VPB $end
$var wire 1 " VPWR $end
$var wire 1 , X $end
$var wire 1 N buf0_out_X $end
$var wire 1 O pwrgood_pp0_out_X $end
$upscope $end
$upscope $end
$scope module clkbuf_1_0_0_clk $end
$var wire 1 , A $end
$var wire 1 ! VGND $end
$var wire 1 ! VNB $end
$var wire 1 " VPB $end
$var wire 1 " VPWR $end
$var wire 1 + X $end
$scope module base $end
$var wire 1 , A $end
$var wire 1 ! VGND $end
$var wire 1 ! VNB $end
$var wire 1 " VPB $end
$var wire 1 " VPWR $end
$var wire 1 + X $end
$var wire 1 P buf0_out_X $end
$var wire 1 Q pwrgood_pp0_out_X $end
$upscope $end
$upscope $end
$scope module clkbuf_1_1_0_clk $end
$var wire 1 , A $end
$var wire 1 ! VGND $end
$var wire 1 ! VNB $end
$var wire 1 " VPB $end
$var wire 1 " VPWR $end
$var wire 1 * X $end
$scope module base $end
$var wire 1 , A $end
$var wire 1 ! VGND $end
$var wire 1 ! VNB $end
$var wire 1 " VPB $end
$var wire 1 " VPWR $end
$var wire 1 * X $end
$var wire 1 R buf0_out_X $end
$var wire 1 S pwrgood_pp0_out_X $end
$upscope $end
$upscope $end
$upscope $end
$enddefinitions $end
#0
$dumpvars
xS
xR
xQ
xP
xO
1N
xM
xL
xK
xJ
xI
xH
xG
xF
xE
0D
xC
zB
zA
x@
z?
z>
x=
0<
z;
z:
z9
z8
z7
z6
z5
z4
z3
z2
x1
x0
x/
x.
x-
x,
x+
x*
x)
x(
x'
z&
1%
1$
bz #
z"
z!
$end
#5000
0N
0$
#10000
1N
1$
#15000
0N
0$
#20000
1N
1$
#25000
0N
0$
#30000
1N
1$
#35000
0N
0$
#40000
1+
1*
z'
1K
1I
1Q
1S
1-
1.
1P
1R
00
1@
1C
11
1/
1,
0G
1?
1B
1D
1=
1E
1O
1<
0F
0>
0A
0%
0!
1"
0&
b0 #
1N
1$
#45000
0+
0*
0Q
0S
0P
0R
0,
0O
0N
0$
#50000
1+
1*
1Q
1S
1P
1R
1,
1O
1N
1$
#51000
1J
0H
1(
0)
1L
0M
#55000
0+
0*
0Q
0S
0P
0R
0,
0O
0N
0$
#60000
1+
1*
1Q
1S
1P
1R
1,
1O
1N
1$
#65000
0+
0*
0Q
0S
0P
0R
0,
0O
0N
0$
#70000
1+
1*
1Q
1S
1P
1R
1,
1O
1N
1$
#75000
0+
0*
0Q
0S
0P
0R
0,
0O
0N
0$
#80000
1+
1*
1Q
1S
1P
1R
1,
1O
1N
1$
#85000
0+
0*
0Q
0S
0P
0R
0,
0O
0N
0$
#90000
1+
1*
1Q
1S
1P
1R
1,
1O
1N
1$
#95000
0+
0*
0Q
0S
0P
0R
0,
0O
0N
0$
#100000
1+
1*
1Q
1S
1P
1R
1,
1O
1N
1$
#105000
0+
0*
0Q
0S
0P
0R
0,
0O
0N
0$
